(footprint "75160-195-03LF" (version 20211014) (generator pcbnew)
  (layer "F.Cu")
  (tedit 62015A06)
  (attr through_hole)
  (fp_text reference "REF**" (at 2.85 -2.28) (layer "F.SilkS")
    (effects (font (size 1 1) (thickness 0.15)))
    (tstamp 854dd5d4-5fd2-4730-bd49-a9cd8299a065)
  )
  (fp_text value "75160-195-03LF" (at 2.71 2.7) (layer "F.Fab")
    (effects (font (size 1 1) (thickness 0.15)))
    (tstamp 120a7b0f-ddfd-4447-85c1-35665465acdb)
  )
  (fp_line (start -1.4 -1.4) (end -1.4 -0.9) (layer "F.SilkS") (width 0.1) (tstamp 0147f16a-c952-4891-8f53-a9fb8cddeb8d))
  (fp_line (start 6.5 -1.4) (end 6 -1.4) (layer "F.SilkS") (width 0.1) (tstamp 0d0bb7b2-a6e5-46d2-9492-a1aa6e5a7b2f))
  (fp_line (start 6.5 1.4) (end 6 1.4) (layer "F.SilkS") (width 0.1) (tstamp 4e3d7c0d-12e3-42f2-b944-e4bcdbbcac2a))
  (fp_line (start -1.4 1.4) (end -1.4 0.9) (layer "F.SilkS") (width 0.1) (tstamp 6a44418c-7bb4-4e99-8836-57f153c19721))
  (fp_line (start -1.4 1.4) (end -0.9 1.4) (layer "F.SilkS") (width 0.1) (tstamp aa02e544-13f5-4cf8-a5f4-3e6cda006090))
  (fp_line (start 6.5 1.4) (end 6.5 0.9) (layer "F.SilkS") (width 0.1) (tstamp c70d9ef3-bfeb-47e0-a1e1-9aeba3da7864))
  (fp_line (start -1.4 -1.4) (end -0.9 -1.4) (layer "F.SilkS") (width 0.1) (tstamp d1262c4d-2245-4c4f-8f35-7bb32cd9e21e))
  (fp_line (start 6.5 -1.4) (end 6.5 -0.9) (layer "F.SilkS") (width 0.1) (tstamp d22e95aa-f3db-4fbc-a331-048a2523233e))
  (fp_line (start -1.52 -1.52) (end 6.6 -1.52) (layer "F.CrtYd") (width 0.05) (tstamp 5b2b5c7d-f943-4634-9f0a-e9561705c49d))
  (fp_line (start 6.6 -1.52) (end 6.6 1.52) (layer "F.CrtYd") (width 0.05) (tstamp 9c8ccb2a-b1e9-4f2c-94fe-301b5975277e))
  (fp_line (start -1.52 -1.52) (end -1.52 1.52) (layer "F.CrtYd") (width 0.05) (tstamp a03e565f-d8cd-4032-aae3-b7327d4143dd))
  (fp_line (start -1.52 1.52) (end 6.6 1.52) (layer "F.CrtYd") (width 0.05) (tstamp cef6f603-8a0b-4dd0-af99-ebfbef7d1b4b))
  (fp_line (start 6.35 -1.27) (end 6.35 1.27) (layer "F.Fab") (width 0.1) (tstamp 15875808-74d5-4210-b8ca-aa8fbc04ae21))
  (fp_line (start -1.27 -1.27) (end -1.27 1.27) (layer "F.Fab") (width 0.1) (tstamp 81bbc3ff-3938-49ac-8297-ce2bcc9a42bd))
  (fp_line (start -1.27 1.27) (end 6.35 1.27) (layer "F.Fab") (width 0.1) (tstamp b1169a2d-8998-4b50-a48d-c520bcc1b8e1))
  (fp_line (start -1.27 -1.27) (end 6.35 -1.27) (layer "F.Fab") (width 0.1) (tstamp dd00c2e1-6027-4717-b312-4fab3ee52002))
  (pad "1" thru_hole circle (at 0 0) (size 2.1 2.1) (drill 1.1) (layers *.Cu *.Mask) (tstamp 8d55e186-3e11-40e8-a65e-b36a8a00069e))
  (pad "2" thru_hole circle (at 2.54 0) (size 2.1 2.1) (drill 1.1) (layers *.Cu *.Mask) (tstamp 48f827a8-6e22-4a2e-abdc-c2a03098d883))
  (pad "3" thru_hole circle (at 5.08 0) (size 2.1 2.1) (drill 1.1) (layers *.Cu *.Mask) (tstamp e877bf4a-4210-4bd3-b7b0-806eb4affc5b))
  (model "${JMCAVOY_LIB_DIR}/3d_models/75160-195-03LF.step"
    (offset (xyz 2.54 0 -3.048))
    (scale (xyz 1 1 1))
    (rotate (xyz 0 0 0))
  )
)
