(footprint "NRJ6HM-1" (version 20211014) (generator pcbnew)
  (layer "F.Cu")
  (tedit 620047C9)
  (attr through_hole)
  (fp_text reference "REF**" (at -10 0) (layer "F.SilkS")
    (effects (font (size 1 1) (thickness 0.15)))
    (tstamp 0e166909-afb5-4d70-a00b-dd78cd09b084)
  )
  (fp_text value "NRJ6HM-1" (at -10 -2.5) (layer "F.Fab")
    (effects (font (size 1 1) (thickness 0.15)))
    (tstamp dc7523a5-4408-4a51-bc92-6a47a538c094)
  )
  (fp_line (start -22 6.5) (end -22 -9.5) (layer "F.SilkS") (width 0.12) (tstamp 414f80f7-b2d5-43c3-a018-819efe44fe30))
  (fp_line (start -22 -9.5) (end 0.2 -9.5) (layer "F.SilkS") (width 0.12) (tstamp 494d4ce3-60c4-4021-8bd1-ab41a12b14ed))
  (fp_line (start 0.2 6.5) (end -22 6.5) (layer "F.SilkS") (width 0.12) (tstamp a419542a-0c78-421e-9ac7-81d3afba6186))
  (fp_line (start 0.2 -9.5) (end 0.2 6.5) (layer "F.SilkS") (width 0.12) (tstamp c480dba7-51ff-4a4f-9251-e48b2784c64a))
  (fp_line (start 0.25 -9.5) (end 0.25 6.5) (layer "Dwgs.User") (width 0.12) (tstamp 1b5a32e4-0b8e-4f38-b679-71dc277c2087))
  (fp_line (start -22 6.5) (end -22 -9.5) (layer "Dwgs.User") (width 0.12) (tstamp 5a889284-4c9f-49be-8f02-e43e18550914))
  (fp_line (start -22 -9.5) (end 0.25 -9.5) (layer "Dwgs.User") (width 0.12) (tstamp 84febc35-87fd-4cad-8e04-2b66390cfc12))
  (fp_line (start 0.25 6.5) (end -22 6.5) (layer "Dwgs.User") (width 0.12) (tstamp eb7e294c-b398-413b-8b78-85a66ed5f3ea))
  (pad "R" thru_hole circle (at -11.1 -7.23) (size 2.5 2.5) (drill 1.5) (layers *.Cu *.Mask) (tstamp 3c66e6e2-f12d-4b23-910e-e478d272dfd5))
  (pad "RN" thru_hole circle (at -11.1 4.2) (size 2.5 2.5) (drill 1.5) (layers *.Cu *.Mask) (tstamp a67dbe3b-ec7d-4ea5-b0e5-715c5263d8da))
  (pad "S" thru_hole circle (at -4.75 -7.23) (size 2.5 2.5) (drill 1.5) (layers *.Cu *.Mask) (tstamp 9c8eae28-a7c3-4e6a-bd81-98cf70031070))
  (pad "S" thru_hole circle (at -4.75 4.2) (size 2.5 2.5) (drill 1.5) (layers *.Cu *.Mask) (tstamp bc1d5740-b0c7-4566-95b0-470ac47a1fb3))
  (pad "T" thru_hole circle (at -17.45 -7.23) (size 2.5 2.5) (drill 1.5) (layers *.Cu *.Mask) (tstamp d8370835-89ad-4b62-9f40-d0c10470788a))
  (pad "TN" thru_hole circle (at -17.45 4.2) (size 2.5 2.5) (drill 1.5) (layers *.Cu *.Mask) (tstamp eb1b2aa2-a3cc-4a96-87ec-70fcae365f0f))
  (model "${JMCAVOY_LIB_DIR}/3d_models/nrj6hm-1-1.stp"
    (offset (xyz 0 0 0))
    (scale (xyz 1 1 1))
    (rotate (xyz -90 0 -90))
  )
)
